simulation.vcd
$date
	Wed Apr 29 14:38:09 2026
$end
$version
	Icarus Verilog
$end
$timescale
	1ps
$end
$scope module tb_shift_reg $end
$var wire 6 ! Q [5:0] $end
$var reg 1 " clk $end
$var reg 1 # enable $end
$var reg 3 $ mode [2:0] $end
$var reg 6 % parallel_in [5:0] $end
$var reg 1 & reset $end
$var reg 1 ' serial_in $end
$scope module uut $end
$var wire 1 " clk $end
$var wire 1 # enable $end
$var wire 3 ( mode [2:0] $end
$var wire 6 ) parallel_in [5:0] $end
$var wire 1 & reset $end
$var wire 1 ' serial_in $end
$var reg 6 * Q [5:0] $end
$upscope $end
$upscope $end
$enddefinitions $end
$comment Show the parameter values. $end
$dumpall
$end
#0
$dumpvars
b0 *
b101010 )
b0 (
0'
1&
b101010 %
b0 $
0#
0"
b0 !
$end
#5000
1"
#10000
0"
b11 $
b11 (
1#
0&
#15000
b101010 !
b101010 *
1"
#20000
0"
b1 $
b1 (
1'
#25000
b110101 !
b110101 *
1"
#30000
0"
b10 $
b10 (
0'
#35000
b101010 !
b101010 *
1"
#40000
0"
b100 $
b100 (
#45000
b10101 !
b10101 *
1"
#50000
0"
b101 $
b101 (
#55000
b101010 !
b101010 *
1"
#60000
0"
b0 $
b0 (
